Introduction • bennu
…
summarise_draws(fit, default_summary_measures())
#> # A tibble: 222 × 7
#>    variable   mean median     sd    mad    q5   q95
#>    <chr>     <dbl>  <dbl>  <dbl>  <dbl> <dbl> <dbl>
#>  1 sim_p[1]  0.257  0.241 0.0827 0.0798 0.144 0.396
#>  2 sim_p[2]  0.261  0.256 0.0732 0.0745 0.154 0.403
#>  3 sim_p[3]  0.258  0.255 0.0601 0.0470 0.168 0.364
#>  4 sim_p[4]  0.243  0.240 0.0523 0.0473 0.165 0.335
#>  5 sim_p[5]  0.243  0.233 0.0590 0.0510 0.158 0.346
#>  6 sim_p[6]  0.242  0.234 0.0579 0.0484 0.158 0.338
#>  7 sim_p[7]  0.230  0.230 0.0416 0.0372 0.167 0.298
#>  8 sim_p[8]  0.242  0.241 0.0419 0.0388 0.168 0.309
#>  9 sim_p[9]  0.243  0.238 0.0464 0.0470 0.172 0.319
#> 10 sim_p[10] 0.252  0.248 0.0467 0.0414 0.186 0.336
#> # ℹ 212 more rows
…
Summarize random walk order 2 model draws

summarise_draws(rw2_fit, default_convergence_measures())
#> # A tibble: 222 × 4
#>    variable   rhat ess_bulk ess_tail
#>    <chr>     <dbl>    <dbl>    <dbl>
#>  1 sim_p[1]   1.37     11.4     35.3
#>  2 sim_p[2]   1.42     10.2     84.9
#>  3 sim_p[3]   1.28     14.4    100.0
#>  4 sim_p[4]   1.30     12.7    103. 
#>  5 sim_p[5]   1.10     34.2    134. 
#>  6 sim_p[6]   1.10     66.2    121. 
#>  7 sim_p[7]   1.10     85.0     72.1
#>  8 sim_p[8]   1.10     92.7    142. 
#>  9 sim_p[9]   1.07     84.0     35.0
#> 10 sim_p[10]  1.07    141.     153. 
#> # ℹ 212 more rows
…
